Read data
---------

``` r
## read csv file
#rdt <- read.csv("data/trumptweets-1515775693.tweets.csv")
rdt <- readRDS("data/trumptweets-1515775693.rds")

## preview data
rdt
```

    ## # A tibble: 32,826 x 68
    ##            status_id          created_at  user_id     screen_name
    ##                <chr>              <dttm>    <chr>           <chr>
    ##  1        1864367186 2009-05-20 22:29:47 25073877 realDonaldTrump
    ##  2  9273573134835712 2010-11-29 15:52:46 25073877 realDonaldTrump
    ##  3       29014512646 2010-10-28 18:53:40 25073877 realDonaldTrump
    ##  4  7483813542232064 2010-11-24 17:20:54 25073877 realDonaldTrump
    ##  5        5775731054 2009-11-16 21:06:10 25073877 realDonaldTrump
    ##  6 14785576859340800 2010-12-14 20:55:30 25073877 realDonaldTrump
    ##  7       22742724001 2010-09-01 21:38:38 25073877 realDonaldTrump
    ##  8        3450626731 2009-08-21 14:32:45 25073877 realDonaldTrump
    ##  9        4862580190 2009-10-14 14:13:17 25073877 realDonaldTrump
    ## 10       29674109995 2010-11-04 15:00:52 25073877 realDonaldTrump
    ## # ... with 32,816 more rows, and 64 more variables: text <chr>,
    ## #   source <chr>, display_text_width <dbl>, reply_to_status_id <chr>,
    ## #   reply_to_user_id <chr>, reply_to_screen_name <chr>, is_quote <lgl>,
    ## #   is_retweet <lgl>, favorite_count <int>, retweet_count <int>,
    ## #   hashtags <list>, symbols <list>, urls_url <list>, urls_t.co <list>,
    ## #   urls_expanded_url <list>, media_url <list>, media_t.co <list>,
    ## #   media_expanded_url <list>, media_type <list>, ext_media_url <list>,
    ## #   ext_media_t.co <list>, ext_media_expanded_url <list>,
    ## #   ext_media_type <chr>, mentions_user_id <list>,
…
